<svg width="64" height="90" viewBox="0 0 64 90" fill="none" xmlns="http://www.w3.org/2000/svg">
<path d="M31.6406 0C14.1929 0 0 14.1929 0 31.6406C0 37.5346 1.63248 43.287 4.7199 48.2773L29.8383 88.7525C30.8798 90.4345 33.3355 90.4089 34.3445 88.7164L58.8217 47.8498C61.7363 42.9651 63.2812 37.3595 63.2812 31.6406C63.2812 14.1929 49.0883 0 31.6406 0ZM31.6406 47.4961C22.7909 47.4961 15.7852 40.2928 15.7852 31.6406C15.7852 22.9168 22.9168 15.7852 31.6406 15.7852C40.3645 15.7852 47.4961 22.9168 47.4961 31.6406C47.4961 40.2165 40.5845 47.4961 31.6406 47.4961Z" fill="#E30016"/>
<circle cx="31.5" cy="31.5" r="24.5" fill="white"/>
<path fill-rule="evenodd" clip-rule="evenodd" d="M17 32.2676L19.4417 32.2675V40.0318H17V32.2676V32.2676Z" fill="#E30016"/>
<path fill-rule="evenodd" clip-rule="evenodd" d="M19.9016 36.5686V38.0887L22.9421 38.0894L24.3242 36.7073V33.6571L22.9421 32.2642L19.9016 32.2656L19.8994 33.7907L21.8344 33.7893L21.8364 36.5686L19.9016 36.5686Z" fill="#E30016"/>
<path fill-rule="evenodd" clip-rule="evenodd" d="M25.0166 32.2656H27.5044V40.0297H25.0166V32.2656Z" fill="#122759"/>
<path fill-rule="evenodd" clip-rule="evenodd" d="M28.0566 38.6318H29.3006L29.3007 37.5342H31.6502V40.0298H28.0566V38.6318Z" fill="#122759"/>
<path fill-rule="evenodd" clip-rule="evenodd" d="M40.9678 40.0298L37.8946 32.2656H35.2686L37.4089 37.6728H35.7945L35.2451 39.1979L38.0119 39.1964L38.3418 40.0298H40.9678Z" fill="#122759"/>
<path fill-rule="evenodd" clip-rule="evenodd" d="M35.0719 32.4661L36.2875 35.5374L34.6695 40.0298H32.3477L35.0719 32.4661Z" fill="#122759"/>
<path fill-rule="evenodd" clip-rule="evenodd" d="M41.8322 40.0298L44.3632 40.0239V37.7572L41.6987 32.2656H39.2109L41.8265 37.6352L41.8322 40.0298Z" fill="#122759"/>
<path fill-rule="evenodd" clip-rule="evenodd" d="M43.2578 34.6203L44.5726 37.3245L47.0333 32.2657H44.4073L43.2578 34.6203Z" fill="#122759"/>
<path d="M43.2578 34.6203L44.5726 37.3245L47.0333 32.2657H44.4073L43.2578 34.6203V34.6203Z" stroke="#1B1918" stroke-width="0.25"/>
<path fill-rule="evenodd" clip-rule="evenodd" d="M17.0312 22L19.473 22.0059V25.4661H21.8225V27.0014L19.473 26.9971V29.8105H17.0312V22Z" fill="#E30016"/>
<path fill-rule="evenodd" clip-rule="evenodd" d="M20.0723 22H23.8961V24.4957H21.4543V23.5714H20.0723V22Z" fill="#E30016"/>
<path fill-rule="evenodd" clip-rule="evenodd" d="M33.6162 22.0462H37.7625V23.5712L36.9333 23.5713V28.2968H37.7625V29.8104H33.6162V28.2968H34.3L34.3014 23.5713H33.6162V22.0461V22.0462Z" fill="#122759"/>
<path fill-rule="evenodd" clip-rule="evenodd" d="M39.0039 29.8103H41.6212L41.6299 22.0461H39.0039V29.8103Z" fill="#122759"/>
<path fill-rule="evenodd" clip-rule="evenodd" d="M42.0449 22.0461H45.0769L46.6059 23.5712V25.9282L45.483 26.9941L43.142 27.4446H42.0449V26.0582L44.1181 26.0669V23.5626H42.0449V22.0461Z" fill="#122759"/>
<path fill-rule="evenodd" clip-rule="evenodd" d="M45.5798 27.2734L46.8879 29.8133L44.2214 29.8105L43.1602 27.7273L45.5798 27.2734Z" fill="#122759"/>
<path fill-rule="evenodd" clip-rule="evenodd" d="M32.9835 29.8104L29.9103 22.0463H27.2843L29.4245 27.4534H27.8102L27.2607 28.9785L30.0276 28.9771L30.3574 29.8104H32.9835Z" fill="#122759"/>
<path fill-rule="evenodd" clip-rule="evenodd" d="M27.0867 22.2468L28.3022 25.3181L26.6841 29.8104H24.3623L27.0867 22.2468Z" fill="#122759"/>
</svg>
